
{
	"ID": 12345,
	"DOB": "11/12/75",
	"Gender": "Female",

	"Program": [{
		"StringData": "This is a test sentence",
		"FilterType": 1,
		"Correct": true,
		"NumberEntered":3,
		"HowLong":1234
		
	}, {
		"StringData": "Another word or sentence goes here",
		"FilterType": 2,
		"Correct": false,
		"NumberEntered":-1,
		"HowLong":-1		
	}]
	
	"Answers": "",
	"Comments": ""
}